ggplot_01.utf8.md
…
---
class: content-slide

#### 01
### 차트 그리기

## 2019년 대한민국 예산 데이터

`data()` 함수는 패키지에 내장되어 있는 데이터를 사용할 수 있게 해줍니다.

```r
library(krbudget2019)
data(krbg)
krbg
#> # A tibble: 1,590 x 15
#>   소관  입출분류 회계분류 계정  `장(분야)` `관(부문)` `항(프로그램)`
#>   <chr> <chr>    <chr>    <chr> <chr>      <chr>      <chr>         
#> 1 대통령비~ 세입     일반회계 -     ""         재산수입   관유물대여료  
#> 2 대통령비~ 세입     일반회계 -     ""         경상이전수입~ 기타경상이전수입~
#> 3 대통령비~ 세입     일반회계 -     ""         재화및용역판매수입~ 잡수입        
#> 4 대통령경~ 세입     일반회계 -     ""         재산수입   관유물대여료  
#> 5 대통령경~ 세입     일반회계 -     ""         재화및용역판매수입~ 면허료및수수료
#> 6 대통령경~ 세입     일반회계 -     ""         재화및용역판매수입~ 잡수입        
#> # ... with 1,584 more rows, and 8 more variables: 금액_원안 <dbl>,
#> #   계정별합계_원안 <dbl>, 회계분류별합계_원안 <dbl>, 소관총계_원안 <dbl>,
#> #   증감액 <dbl>, 수정금액_확정안 <dbl>, 회계분류별합계_확정안 <dbl>,
#> #   소관총계_확정안 <dbl>
```
…
