template.utf8.md
…
---

class: content-slide

#### 00 챕터명
### 슬라이드의 한줄 요약

## 이건 그냥 타이틀

이건 그냥 글자

```r
library(ggplot2)
mpg
#> # A tibble: 234 x 11
#>   manufacturer model displ  year   cyl trans  drv     cty   hwy fl    class
#>   <chr>        <chr> <dbl> <int> <int> <chr>  <chr> <int> <int> <chr> <chr>
#> 1 audi         a4      1.8  1999     4 auto(~ f        18    29 p     comp~
#> 2 audi         a4      1.8  1999     4 manua~ f        21    29 p     comp~
#> 3 audi         a4      2    2008     4 manua~ f        20    31 p     comp~
#> 4 audi         a4      2    2008     4 auto(~ f        21    30 p     comp~
#> 5 audi         a4      2.8  1999     6 auto(~ f        16    26 p     comp~
#> 6 audi         a4      2.8  1999     6 manua~ f        18    26 p     comp~
#> # ... with 228 more rows
```

---

class: content-slide

#### 00 챕터명
### 슬라이드의 한줄 요약

이건 그냥 글자

```r
library(ggplot2)
mpg
#> # A tibble: 234 x 11
#>   manufacturer model displ  year   cyl trans  drv     cty   hwy fl    class
#>   <chr>        <chr> <dbl> <int> <int> <chr>  <chr> <int> <int> <chr> <chr>
#> 1 audi         a4      1.8  1999     4 auto(~ f        18    29 p     comp~
#> 2 audi         a4      1.8  1999     4 manua~ f        21    29 p     comp~
#> 3 audi         a4      2    2008     4 manua~ f        20    31 p     comp~
#> 4 audi         a4      2    2008     4 auto(~ f        21    30 p     comp~
#> 5 audi         a4      2.8  1999     6 auto(~ f        16    26 p     comp~
#> 6 audi         a4      2.8  1999     6 manua~ f        18    26 p     comp~
#> # ... with 228 more rows
```
